
Compact plan:
0: (drive truck-1 city-loc-5 city-loc-6)
1: (drive truck-1 city-loc-6 city-loc-1)
2: (drive truck-1 city-loc-1 city-loc-0)
3: (pick_up truck-1 city-loc-0 package-0 capacity-1 capacity-2)
4: (drive truck-1 city-loc-0 city-loc-1)
5: (drive truck-1 city-loc-1 city-loc-6)
6: (drive truck-1 city-loc-6 city-loc-5)
7: (drive truck-1 city-loc-5 city-loc-2)
8: (drop truck-1 city-loc-2 package-0 capacity-1 capacity-2)
9: (drive truck-0 city-loc-5 city-loc-6)
10: (drive truck-0 city-loc-6 city-loc-1)
11: (drive truck-0 city-loc-1 city-loc-0)
12: (drive truck-0 city-loc-0 city-loc-3)
13: (pick_up truck-0 city-loc-3 package-1 capacity-1 capacity-2)
14: (drive truck-0 city-loc-3 city-loc-0)
15: (drive truck-0 city-loc-0 city-loc-1)
16: (drive truck-0 city-loc-1 city-loc-6)
17: (drive truck-0 city-loc-6 city-loc-4)
18: (drop truck-0 city-loc-4 package-1 capacity-1 capacity-2)
19: (drive truck-0 city-loc-4 city-loc-6)
20: (drive truck-0 city-loc-6 city-loc-4)
21: (pick_up truck-0 city-loc-4 package-2 capacity-1 capacity-2)
22: (drive truck-0 city-loc-4 city-loc-6)
23: (drive truck-0 city-loc-6 city-loc-1)
24: (drive truck-0 city-loc-1 city-loc-0)
25: (drop truck-0 city-loc-0 package-2 capacity-1 capacity-2)
26: (drive truck-1 city-loc-2 city-loc-5)
27: (drive truck-1 city-loc-5 city-loc-7)
28: (pick_up truck-1 city-loc-7 package-3 capacity-1 capacity-2)
29: (drive truck-1 city-loc-7 city-loc-5)
30: (drive truck-1 city-loc-5 city-loc-2)
31: (drop truck-1 city-loc-2 package-3 capacity-1 capacity-2)
32: (drive truck-1 city-loc-2 city-loc-5)
33: (drive truck-1 city-loc-5 city-loc-4)
34: (pick_up truck-1 city-loc-4 package-4 capacity-1 capacity-2)
35: (drive truck-1 city-loc-4 city-loc-5)
36: (drop truck-1 city-loc-5 package-4 capacity-1 capacity-2)
37: (drive truck-0 city-loc-0 city-loc-3)
38: (pick_up truck-0 city-loc-3 package-5 capacity-1 capacity-2)
39: (drive truck-0 city-loc-3 city-loc-0)
40: (drive truck-0 city-loc-0 city-loc-1)
41: (drive truck-0 city-loc-1 city-loc-6)
42: (drive truck-0 city-loc-6 city-loc-5)
43: (drop truck-0 city-loc-5 package-5 capacity-1 capacity-2)
44: (drive truck-1 city-loc-5 city-loc-2)
45: (pick_up truck-1 city-loc-2 package-6 capacity-1 capacity-2)
46: (drive truck-1 city-loc-2 city-loc-5)
47: (drive truck-1 city-loc-5 city-loc-7)
48: (drop truck-1 city-loc-7 package-6 capacity-1 capacity-2)
49: (pick_up truck-1 city-loc-7 package-7 capacity-1 capacity-2)
50: (drive truck-1 city-loc-7 city-loc-5)
51: (drive truck-1 city-loc-5 city-loc-4)
52: (drop truck-1 city-loc-4 package-7 capacity-1 capacity-2)


