
Compact plan:
0: (drive truck-0 city-loc-1 city-loc-3)
1: (drive truck-0 city-loc-3 city-loc-2)
2: (drive truck-0 city-loc-2 city-loc-0)
3: (pick_up truck-0 city-loc-0 package-0 capacity-2 capacity-3)
4: (drive truck-0 city-loc-0 city-loc-2)
5: (drive truck-0 city-loc-2 city-loc-3)
6: (drive truck-0 city-loc-3 city-loc-1)
7: (drop truck-0 city-loc-1 package-0 capacity-2 capacity-3)
8: (drive truck-0 city-loc-1 city-loc-3)
9: (drive truck-0 city-loc-3 city-loc-2)
10: (pick_up truck-0 city-loc-2 package-1 capacity-2 capacity-3)
11: (drive truck-0 city-loc-2 city-loc-3)
12: (drop truck-0 city-loc-3 package-1 capacity-2 capacity-3)
13: (drive truck-0 city-loc-3 city-loc-2)
14: (drive truck-0 city-loc-2 city-loc-0)
15: (pick_up truck-0 city-loc-0 package-2 capacity-2 capacity-3)
16: (drive truck-0 city-loc-0 city-loc-2)
17: (drive truck-0 city-loc-2 city-loc-3)
18: (drive truck-0 city-loc-3 city-loc-1)
19: (drop truck-0 city-loc-1 package-2 capacity-2 capacity-3)
20: (drive truck-0 city-loc-1 city-loc-3)
21: (drive truck-0 city-loc-3 city-loc-2)
22: (drive truck-0 city-loc-2 city-loc-0)
23: (pick_up truck-0 city-loc-0 package-3 capacity-2 capacity-3)
24: (drive truck-0 city-loc-0 city-loc-2)
25: (drive truck-0 city-loc-2 city-loc-3)
26: (drive truck-0 city-loc-3 city-loc-1)
27: (drop truck-0 city-loc-1 package-3 capacity-2 capacity-3)
28: (pick_up truck-0 city-loc-1 package-4 capacity-2 capacity-3)
29: (drive truck-0 city-loc-1 city-loc-3)
30: (drive truck-0 city-loc-3 city-loc-2)
31: (drop truck-0 city-loc-2 package-4 capacity-2 capacity-3)


