
Compact plan:
0: (unstack b3 b6)
1: (put-down b3)
2: (unstack b6 b5)
3: (put-down b6)
4: (unstack b5 b1)
5: (put-down b5)
6: (pick-up b3)
7: (stack b3 b5)
8: (pick-up b6)
9: (stack b6 b3)
10: (unstack b1 b7)
11: (stack b1 b6)
12: (pick-up b2)
13: (stack b2 b1)
14: (pick-up b4)
15: (stack b4 b2)
16: (pick-up b7)
17: (stack b7 b4)


