0.000 lower 1
0.155 upper 194
0.171 lower 2
0.171 lower 3
0.171 lower 4
0.171 lower 5
0.171 lower 6
0.171 lower 7
0.171 lower 8
0.171 lower 9
0.171 lower 10
0.171 lower 11
0.171 lower 12
0.171 lower 13
0.171 lower 14
0.171 lower 15
0.171 lower 16
0.171 lower 17
0.171 lower 18
0.171 lower 19
0.171 lower 20
0.171 lower 21
0.171 lower 22
0.171 lower 23
0.171 lower 24
0.171 lower 25
0.171 lower 26
0.171 lower 27
0.171 lower 28
0.171 lower 29
0.171 lower 30
0.171 lower 31
0.171 lower 32
0.171 lower 33
0.171 lower 34
0.171 lower 35
0.171 lower 36
0.171 lower 37
0.171 lower 38
0.171 lower 39
0.171 lower 40
0.171 lower 41
0.171 lower 42
0.171 lower 43
0.171 lower 44
0.171 lower 45
0.171 lower 46
0.171 lower 47
0.171 lower 48
0.171 lower 49
0.171 lower 50
0.171 lower 51
0.171 lower 52
0.171 lower 53
0.171 lower 54
0.171 lower 55
0.171 lower 56
0.171 lower 57
0.171 lower 58
0.171 lower 59
0.171 lower 60
0.171 lower 61
0.171 lower 62
0.171 lower 63
0.171 lower 64
0.171 lower 65
0.171 lower 66
0.171 lower 67
0.171 lower 68
0.171 lower 69
0.171 lower 70
0.171 lower 71
0.171 lower 72
0.171 lower 73
0.171 lower 74
0.171 lower 75
0.171 lower 76
0.171 lower 77
0.171 lower 78
0.171 lower 79
0.171 lower 80
0.171 lower 81
0.171 lower 82
0.171 lower 83
0.171 lower 84
0.171 lower 85
0.171 lower 86
0.171 lower 87
0.171 lower 88
0.171 lower 89
0.171 lower 90
0.171 lower 91
0.171 lower 92
0.171 lower 93
0.171 lower 94
0.171 lower 95
0.171 lower 96
0.171 lower 97
0.171 lower 98
0.171 lower 99
0.171 lower 100
0.171 lower 101
0.171 lower 102
0.171 lower 103
0.171 lower 104
0.171 lower 105
0.171 lower 106
0.171 lower 107
0.171 lower 108
0.171 lower 109
0.171 lower 110
0.171 lower 111
0.171 lower 112
0.171 lower 113
0.171 lower 114
0.171 lower 115
0.171 lower 116
0.171 lower 117
0.171 lower 118
0.171 lower 119
0.171 lower 120
0.171 lower 121
0.171 lower 122
0.171 lower 123
0.171 lower 124
0.171 lower 125
0.171 lower 126
0.171 lower 127
0.171 lower 128
0.171 lower 129
0.171 lower 130
0.171 lower 131
0.171 lower 132
0.171 lower 133
0.171 lower 134
0.171 lower 135
0.171 lower 136
0.171 lower 137
0.171 lower 138
0.171 lower 139
0.171 lower 140
0.171 lower 141
0.171 lower 142
0.171 lower 143
0.171 lower 144
0.171 lower 145
0.171 lower 146
0.171 lower 147
0.171 lower 148
0.171 lower 149
0.171 lower 150
0.171 lower 151
0.171 lower 152
0.171 lower 153
0.171 lower 154
0.171 lower 155
0.171 lower 156
0.171 lower 157
0.171 lower 158
0.171 lower 159
0.171 lower 160
0.171 lower 161
0.171 lower 162
0.171 lower 163
0.171 lower 164
0.171 lower 165
0.171 lower 166
0.171 lower 167
0.171 lower 168
0.171 lower 169
0.171 lower 170
0.171 lower 171
0.171 lower 172
0.914 lower 173
1.992 lower 174
2.899 lower 175
3.978 lower 176
6.475 lower 177
13.830 lower 178
29.911 upper 178
29.911 result 178
