0.000 lower 1
0.262 upper 193
0.291 upper 192
0.405 upper 189
0.586 upper 188
0.592 upper 187
0.719 upper 186
0.724 upper 185
5.194 upper 184
5.212 upper 183
5.495 upper 182
6.189 lower 182
6.189 result 182
